^C:\USERS\BBL\DOCUMENTS\VISUAL STUDIO 2015\PROJECTS\WORLDEDITOR\WORLDEDITOR\MAIN.CPP
/c /I"C:\USERS\BBL\DESKTOP\LIBS\GLFW-3.1.2.BIN.WIN32\INCLUDE" /I"C:\USERS\BBL\DESKTOP\LIBS\GLEW-1.13.0_BIN\INCLUDE" /ZI /nologo /W3 /WX- /Od /Oy- /D WIN32 /D _DEBUG /D _CONSOLE /D _UNICODE /D UNICODE /Gm /EHsc /RTC1 /MDd /GS /fp:precise /Zc:wchar_t /Zc:forScope /Zc:inline /Fo"DEBUG\\" /Fd"DEBUG\VC140.PDB" /Gd /TP /analyze- C:\USERS\BBL\DOCUMENTS\VISUAL STUDIO 2015\PROJECTS\WORLDEDITOR\WORLDEDITOR\MAIN.CPP
^C:\USERS\BBL\DROPBOX\CPP\PROJECTS\DEMO\SRC\ENGINE.CPP
/c /I"C:\USERS\BBL\DESKTOP\LIBS\SHIT\SIMPLE OPENGL IMAGE LIBRARY\SRC" /I"C:\USERS\BBL\DESKTOP\LIBS\GLFW-3.1.2.BIN.WIN32\INCLUDE" /I"C:\USERS\BBL\DESKTOP\LIBS\GLEW-1.13.0_BIN\INCLUDE" /ZI /nologo /W3 /WX- /Od /Oy- /D WIN32 /D _DEBUG /D _CONSOLE /D _UNICODE /D UNICODE /Gm /EHsc /RTC1 /MDd /GS /fp:precise /Zc:wchar_t /Zc:forScope /Zc:inline /Fo"DEBUG\\" /Fd"DEBUG\VC140.PDB" /Gd /TP /analyze- C:\USERS\BBL\DROPBOX\CPP\PROJECTS\DEMO\SRC\ENGINE.CPP
^C:\USERS\BBL\DROPBOX\CPP\PROJECTS\DEMO\SRC\SHADER.CPP
/c /I"C:\USERS\BBL\DESKTOP\LIBS\SHIT\SIMPLE OPENGL IMAGE LIBRARY\SRC" /I"C:\USERS\BBL\DESKTOP\LIBS\GLFW-3.1.2.BIN.WIN32\INCLUDE" /I"C:\USERS\BBL\DESKTOP\LIBS\GLEW-1.13.0_BIN\INCLUDE" /ZI /nologo /W3 /WX- /Od /Oy- /D WIN32 /D _DEBUG /D _CONSOLE /D _UNICODE /D UNICODE /Gm /EHsc /RTC1 /MDd /GS /fp:precise /Zc:wchar_t /Zc:forScope /Zc:inline /Fo"DEBUG\\" /Fd"DEBUG\VC140.PDB" /Gd /TP /analyze- C:\USERS\BBL\DROPBOX\CPP\PROJECTS\DEMO\SRC\SHADER.CPP
^C:\USERS\BBL\DROPBOX\CPP\PROJECTS\DEMO\SRC\SHAPE.CPP
/c /I"C:\USERS\BBL\DESKTOP\LIBS\SHIT\SIMPLE OPENGL IMAGE LIBRARY\SRC" /I"C:\USERS\BBL\DESKTOP\LIBS\GLFW-3.1.2.BIN.WIN32\INCLUDE" /I"C:\USERS\BBL\DESKTOP\LIBS\GLEW-1.13.0_BIN\INCLUDE" /ZI /nologo /W3 /WX- /Od /Oy- /D WIN32 /D _DEBUG /D _CONSOLE /D _UNICODE /D UNICODE /Gm /EHsc /RTC1 /MDd /GS /fp:precise /Zc:wchar_t /Zc:forScope /Zc:inline /Fo"DEBUG\\" /Fd"DEBUG\VC140.PDB" /Gd /TP /analyze- C:\USERS\BBL\DROPBOX\CPP\PROJECTS\DEMO\SRC\SHAPE.CPP
^C:\USERS\BBL\DROPBOX\CPP\PROJECTS\DEMO\SRC\TEXTURE.CPP
/c /I"C:\USERS\BBL\DESKTOP\LIBS\SHIT\SIMPLE OPENGL IMAGE LIBRARY\SRC" /I"C:\USERS\BBL\DESKTOP\LIBS\GLFW-3.1.2.BIN.WIN32\INCLUDE" /I"C:\USERS\BBL\DESKTOP\LIBS\GLEW-1.13.0_BIN\INCLUDE" /ZI /nologo /W3 /WX- /Od /Oy- /D WIN32 /D _DEBUG /D _CONSOLE /D _UNICODE /D UNICODE /Gm /EHsc /RTC1 /MDd /GS /fp:precise /Zc:wchar_t /Zc:forScope /Zc:inline /Fo"DEBUG\\" /Fd"DEBUG\VC140.PDB" /Gd /TP /analyze- C:\USERS\BBL\DROPBOX\CPP\PROJECTS\DEMO\SRC\TEXTURE.CPP
^C:\USERS\BBL\DROPBOX\CPP\PROJECTS\DEMO\SRC\UTILS.CPP
/c /I"C:\USERS\BBL\DESKTOP\LIBS\SHIT\SIMPLE OPENGL IMAGE LIBRARY\SRC" /I"C:\USERS\BBL\DESKTOP\LIBS\GLFW-3.1.2.BIN.WIN32\INCLUDE" /I"C:\USERS\BBL\DESKTOP\LIBS\GLEW-1.13.0_BIN\INCLUDE" /ZI /nologo /W3 /WX- /Od /Oy- /D WIN32 /D _DEBUG /D _CONSOLE /D _UNICODE /D UNICODE /Gm /EHsc /RTC1 /MDd /GS /fp:precise /Zc:wchar_t /Zc:forScope /Zc:inline /Fo"DEBUG\\" /Fd"DEBUG\VC140.PDB" /Gd /TP /analyze- C:\USERS\BBL\DROPBOX\CPP\PROJECTS\DEMO\SRC\UTILS.CPP
^C:\USERS\BBL\DOCUMENTS\VISUAL STUDIO 2015\PROJECTS\WORLDEDITOR\WORLDEDITOR\SOURCE\DISPLAY.CPP
/c /I"C:\USERS\BBL\DOCUMENTS\VISUAL STUDIO 2015\PROJECTS\WORLDEDITOR\WORLDEDITOR\SOURCE" /I"C:\USERS\BBL\DESKTOP\LIBS\SHIT\SIMPLE OPENGL IMAGE LIBRARY\SRC" /I"C:\USERS\BBL\DESKTOP\LIBS\GLFW-3.1.2.BIN.WIN32\INCLUDE" /I"C:\USERS\BBL\DESKTOP\LIBS\GLEW-1.13.0_BIN\INCLUDE" /ZI /nologo /W3 /WX- /Od /Oy- /D WIN32 /D _DEBUG /D _CONSOLE /D _UNICODE /D UNICODE /Gm /EHsc /RTC1 /MDd /GS /fp:precise /Zc:wchar_t /Zc:forScope /Zc:inline /Fo"DEBUG\\" /Fd"DEBUG\VC140.PDB" /Gd /TP /analyze- C:\USERS\BBL\DOCUMENTS\VISUAL STUDIO 2015\PROJECTS\WORLDEDITOR\WORLDEDITOR\SOURCE\DISPLAY.CPP
^C:\USERS\BBL\DOCUMENTS\VISUAL STUDIO 2015\PROJECTS\WORLDEDITOR\WORLDEDITOR\SOURCE\EDITOR.CPP
/c /I"C:\USERS\BBL\DOCUMENTS\VISUAL STUDIO 2015\PROJECTS\WORLDEDITOR\WORLDEDITOR\SOURCE" /I"C:\USERS\BBL\DESKTOP\LIBS\SHIT\SIMPLE OPENGL IMAGE LIBRARY\SRC" /I"C:\USERS\BBL\DESKTOP\LIBS\GLFW-3.1.2.BIN.WIN32\INCLUDE" /I"C:\USERS\BBL\DESKTOP\LIBS\GLEW-1.13.0_BIN\INCLUDE" /ZI /nologo /W3 /WX- /Od /Oy- /D WIN32 /D _DEBUG /D _CONSOLE /D _UNICODE /D UNICODE /Gm /EHsc /RTC1 /MDd /GS /fp:precise /Zc:wchar_t /Zc:forScope /Zc:inline /Fo"DEBUG\\" /Fd"DEBUG\VC140.PDB" /Gd /TP /analyze- C:\USERS\BBL\DOCUMENTS\VISUAL STUDIO 2015\PROJECTS\WORLDEDITOR\WORLDEDITOR\SOURCE\EDITOR.CPP
^C:\USERS\BBL\DOCUMENTS\VISUAL STUDIO 2015\PROJECTS\WORLDEDITOR\WORLDEDITOR\SOURCE\SHADER.CPP
/c /I"C:\USERS\BBL\DOCUMENTS\VISUAL STUDIO 2015\PROJECTS\WORLDEDITOR\WORLDEDITOR\SOURCE" /I"C:\USERS\BBL\DESKTOP\LIBS\SHIT\SIMPLE OPENGL IMAGE LIBRARY\SRC" /I"C:\USERS\BBL\DESKTOP\LIBS\GLFW-3.1.2.BIN.WIN32\INCLUDE" /I"C:\USERS\BBL\DESKTOP\LIBS\GLEW-1.13.0_BIN\INCLUDE" /ZI /nologo /W3 /WX- /Od /Oy- /D WIN32 /D _DEBUG /D _CONSOLE /D _UNICODE /D UNICODE /Gm /EHsc /RTC1 /MDd /GS /fp:precise /Zc:wchar_t /Zc:forScope /Zc:inline /Fo"DEBUG\\" /Fd"DEBUG\VC140.PDB" /Gd /TP /analyze- C:\USERS\BBL\DOCUMENTS\VISUAL STUDIO 2015\PROJECTS\WORLDEDITOR\WORLDEDITOR\SOURCE\SHADER.CPP
^C:\USERS\BBL\DOCUMENTS\VISUAL STUDIO 2015\PROJECTS\WORLDEDITOR\WORLDEDITOR\SOURCE\SHAPE.CPP
/c /I"C:\USERS\BBL\DOCUMENTS\VISUAL STUDIO 2015\PROJECTS\WORLDEDITOR\WORLDEDITOR\SOURCE" /I"C:\USERS\BBL\DESKTOP\LIBS\SHIT\SIMPLE OPENGL IMAGE LIBRARY\SRC" /I"C:\USERS\BBL\DESKTOP\LIBS\GLFW-3.1.2.BIN.WIN32\INCLUDE" /I"C:\USERS\BBL\DESKTOP\LIBS\GLEW-1.13.0_BIN\INCLUDE" /ZI /nologo /W3 /WX- /Od /Oy- /D WIN32 /D _DEBUG /D _CONSOLE /D _UNICODE /D UNICODE /Gm /EHsc /RTC1 /MDd /GS /fp:precise /Zc:wchar_t /Zc:forScope /Zc:inline /Fo"DEBUG\\" /Fd"DEBUG\VC140.PDB" /Gd /TP /analyze- C:\USERS\BBL\DOCUMENTS\VISUAL STUDIO 2015\PROJECTS\WORLDEDITOR\WORLDEDITOR\SOURCE\SHAPE.CPP
^C:\USERS\BBL\DOCUMENTS\VISUAL STUDIO 2015\PROJECTS\WORLDEDITOR\WORLDEDITOR\SOURCE\TEXTURE.CPP
/c /I"C:\USERS\BBL\DOCUMENTS\VISUAL STUDIO 2015\PROJECTS\WORLDEDITOR\WORLDEDITOR\SOURCE" /I"C:\USERS\BBL\DESKTOP\LIBS\SHIT\SIMPLE OPENGL IMAGE LIBRARY\SRC" /I"C:\USERS\BBL\DESKTOP\LIBS\GLFW-3.1.2.BIN.WIN32\INCLUDE" /I"C:\USERS\BBL\DESKTOP\LIBS\GLEW-1.13.0_BIN\INCLUDE" /ZI /nologo /W3 /WX- /Od /Oy- /D WIN32 /D _DEBUG /D _CONSOLE /D _UNICODE /D UNICODE /Gm /EHsc /RTC1 /MDd /GS /fp:precise /Zc:wchar_t /Zc:forScope /Zc:inline /Fo"DEBUG\\" /Fd"DEBUG\VC140.PDB" /Gd /TP /analyze- C:\USERS\BBL\DOCUMENTS\VISUAL STUDIO 2015\PROJECTS\WORLDEDITOR\WORLDEDITOR\SOURCE\TEXTURE.CPP
^C:\USERS\BBL\DOCUMENTS\VISUAL STUDIO 2015\PROJECTS\WORLDEDITOR\WORLDEDITOR\SOURCE\UTILS.CPP
/c /I"C:\USERS\BBL\DOCUMENTS\VISUAL STUDIO 2015\PROJECTS\WORLDEDITOR\WORLDEDITOR\SOURCE" /I"C:\USERS\BBL\DESKTOP\LIBS\SHIT\SIMPLE OPENGL IMAGE LIBRARY\SRC" /I"C:\USERS\BBL\DESKTOP\LIBS\GLFW-3.1.2.BIN.WIN32\INCLUDE" /I"C:\USERS\BBL\DESKTOP\LIBS\GLEW-1.13.0_BIN\INCLUDE" /ZI /nologo /W3 /WX- /Od /Oy- /D WIN32 /D _DEBUG /D _CONSOLE /D _UNICODE /D UNICODE /Gm /EHsc /RTC1 /MDd /GS /fp:precise /Zc:wchar_t /Zc:forScope /Zc:inline /Fo"DEBUG\\" /Fd"DEBUG\VC140.PDB" /Gd /TP /analyze- C:\USERS\BBL\DOCUMENTS\VISUAL STUDIO 2015\PROJECTS\WORLDEDITOR\WORLDEDITOR\SOURCE\UTILS.CPP
